***** <<     Track Data      >> *****
 Track Data = Data Sector || Parity Sector
    o Generate Data Sectors.       
    o Generate Parity sectors.     
      Num of Data Sector : 30... [0,1,..,29] data sector 
      Num of Prty Sector : 20... [0,1,..,19] parity sector 
      Sector Size        : 16
      No of Checks       : 7
**  Start Track Data Generation  
 ==========  Data Sector ===========
Data  Sector =  0 [ 99 77 0 1 2 3 2 2 2 2 2 2 2 2 2 2 2e2 934d 78fc e46 7e27 8be0 123c ]
Data  Sector =  1 [ 99 77 4 5 6 7 3 3 3 3 3 3 3 3 3 3 9e14 e6b2 76d9 8862 2005 d2de 7428 ]
Data  Sector =  2 [ 99 77 8 9 a b 4 4 4 4 4 4 4 4 4 4 8aa6 b7a9 38ca c37a a23f f020 944e ]
Data  Sector =  3 [ 99 77 c d e f 5 5 5 5 5 5 5 5 5 5 1650 c256 36ef 455e fc1d a91e f25a ]
Data  Sector =  4 [ 99 77 10 11 12 13 6 6 6 6 6 6 6 6 6 6 512c 54ba 4068 36c0 16a4 ff13 9a67 ]
Data  Sector =  5 [ 99 77 14 15 16 17 7 7 7 7 7 7 7 7 7 7 cdda 2145 4e4d b0e4 4886 a62d fc73 ]
Data  Sector =  6 [ 99 77 18 19 1a 1b 8 8 8 8 8 8 8 8 8 8 8a25 fe61 b8a6 4909 a04 7a0 88a1 ]
Data  Sector =  7 [ 99 77 1c 1d 1e 1f 9 9 9 9 9 9 9 9 9 9 16d3 8b9e b683 cf2d 5426 5e9e eeb5 ]
Data  Sector =  8 [ 99 77 20 21 22 23 a a a a a a a a a a a57e ca8 9d4 7f4a af21 6206 1281 ]
Data  Sector =  9 [ 99 77 24 25 26 27 b b b b b b b b b b 3988 7957 7f1 f96e f103 3b38 7495 ]
Data  Sector =  10 [ 99 77 28 29 2a 2b c c c c c c c c c c 2d3a 284c 49e2 b276 7339 19c6 94f3 ]
Data  Sector =  11 [ 99 77 2c 2d 2e 2f d d d d d d d d d d b1cc 5db3 47c7 3452 2d1b 40f8 f2e7 ]
Data  Sector =  12 [ 99 77 30 31 32 33 e e e e e e e e e e f6b0 cb5f 3140 47cc c7a2 16f5 9ada ]
Data  Sector =  13 [ 99 77 34 35 36 37 f f f f f f f f f f 6a46 bea0 3f65 c1e8 9980 4fcb fcce ]
Data  Sector =  14 [ 99 77 38 39 3a 3b 10 10 10 10 10 10 10 10 10 10 8b23 6df1 a875 4de4 4a79 f8ab b17f ]
Data  Sector =  15 [ 99 77 3c 3d 3e 3f 11 11 11 11 11 11 11 11 11 11 17d5 180e a650 cbc0 145b a195 d76b ]
Data  Sector =  16 [ 99 77 40 41 42 43 12 12 12 12 12 12 12 12 12 12 5dd1 bc8c 9aac ec5e cc20 4827 1346 ]
Data  Sector =  17 [ 99 77 44 45 46 47 13 13 13 13 13 13 13 13 13 13 c127 c973 9489 6a7a 9202 1119 7552 ]
Data  Sector =  18 [ 99 77 48 49 4a 4b 14 14 14 14 14 14 14 14 14 14 d595 9868 da9a 2162 1038 33e7 9534 ]
Data  Sector =  19 [ 99 77 4c 4d 4e 4f 15 15 15 15 15 15 15 15 15 15 4963 ed97 d4bf a746 4e1a 6ad9 f320 ]
Data  Sector =  20 [ 99 77 50 51 52 53 16 16 16 16 16 16 16 16 16 16 e1f 7b7b a238 d4d8 a4a3 3cd4 9b1d ]
Data  Sector =  21 [ 99 77 54 55 56 57 17 17 17 17 17 17 17 17 17 17 92e9 e84 ac1d 52fc fa81 65ea fd09 ]
Data  Sector =  22 [ 99 77 58 59 5a 5b 18 18 18 18 18 18 18 18 18 18 d516 d1a0 5af6 ab11 b803 c467 89db ]
Data  Sector =  23 [ 99 77 5c 5d 5e 5f 19 19 19 19 19 19 19 19 19 19 49e0 a45f 54d3 2d35 e621 9d59 efcf ]
Data  Sector =  24 [ 99 77 60 61 62 63 1a 1a 1a 1a 1a 1a 1a 1a 1a 1a fa4d 2369 eb84 9d52 1d26 a1c1 13fb ]
Data  Sector =  25 [ 99 77 64 65 66 67 1b 1b 1b 1b 1b 1b 1b 1b 1b 1b 66bb 5696 e5a1 1b76 4304 f8ff 75ef ]
Data  Sector =  26 [ 99 77 68 69 6a 6b 1c 1c 1c 1c 1c 1c 1c 1c 1c 1c 7209 78d abb2 506e c13e da01 9589 ]
Data  Sector =  27 [ 99 77 6c 6d 6e 6f 1d 1d 1d 1d 1d 1d 1d 1d 1d 1d eeff 7272 a597 d64a 9f1c 833f f39d ]
Data  Sector =  28 [ 99 77 70 71 72 73 1e 1e 1e 1e 1e 1e 1e 1e 1e 1e a983 e49e d310 a5d4 75a5 d532 9ba0 ]
Data  Sector =  29 [ 99 77 74 75 76 77 1f 1f 1f 1f 1f 1f 1f 1f 1f 1f 3575 9161 dd35 23f0 2b87 8c0c fdb4 ]
 ==========  Parity Output ===========
Prty  Sector =  30 [ 7ab7 d994 4000 82a8 d55b 17f3 17ef 17ef 17ef 17ef 17ef 17ef 17ef 17ef 17ef 17ef d49a cde5 8f72 3fb9 94ac 8841 167a ]
Prty  Sector =  31 [ a7f7 62ad c8e3 e420 9165 bda6 dd25 dd25 dd25 dd25 dd25 dd25 dd25 dd25 dd25 dd25 356b 9782 c692 884 35fe 28f6 b4ad ]
Prty  Sector =  32 [ dc97 4b8d f55a cfa7 80a0 ba5d 861 861 861 861 861 861 861 861 861 861 9d45 ee96 6a8c fb53 a2a5 86e9 515a ]
Prty  Sector =  33 [ 2199 1f77 29b8 e447 a24d 6fb2 cfdb cfdb cfdb cfdb cfdb cfdb cfdb cfdb cfdb cfdb 8ce3 b77c 17e9 2ee4 a81c 9347 727 ]
Prty  Sector =  34 [ bbf 695 88f6 e3c 9569 13a3 361b 361b 361b 361b 361b 361b 361b 361b 361b 361b cc90 1a47 f3b9 936f 188f f388 502c ]
Prty  Sector =  35 [ db6 492 6a0e 9a11 9a3b 6a24 e03e e03e e03e e03e e03e e03e e03e e03e e03e e03e ca07 1a39 d732 a66b 876b 4c73 635b ]
Prty  Sector =  36 [ abac 969d 67aa b48a d1e1 2c1 9285 9285 9285 9285 9285 9285 9285 9285 9285 9285 4e34 ed4b 166c e7a0 e1c2 fd57 7317 ]
Prty  Sector =  37 [ 47c2 cd47 ad7c 697c 3577 f177 9814 9814 9814 9814 9814 9814 9814 9814 9814 9814 6bd1 d97e edef 9bb5 fb42 3657 8365 ]
Prty  Sector =  38 [ 5b80 3680 a83b f526 1201 4f1c 297e 297e 297e 297e 297e 297e 297e 297e 297e 297e ba82 bda1 d60f c9c8 2fcb 17dd 4df2 ]
Prty  Sector =  39 [ c1d1 b0b6 228b 116c 4545 76a2 58c6 58c6 58c6 58c6 58c6 58c6 58c6 58c6 58c6 58c6 a2eb f0fc 221a dedc 26cc 3f9 fa83 ]
Prty  Sector =  40 [ 9088 7078 c87e 5fb0 f7e9 6027 31da 31da 31da 31da 31da 31da 31da 31da 31da 31da bb17 6187 5402 8db9 35d4 820c 5403 ]
Prty  Sector =  41 [ 5c4c c43d b37b 3c26 bdca 3297 8f4c 8f4c 8f4c 8f4c 8f4c 8f4c 8f4c 8f4c 8f4c 8f4c 3aaf b8ef c9fa 82b2 7c9a cc83 e160 ]
Prty  Sector =  42 [ 8930 88e9 b122 bffb ac90 a249 feb1 feb1 feb1 feb1 feb1 feb1 feb1 feb1 feb1 feb1 cab0 ad4a 4c82 24fe f7b2 213e d8d3 ]
Prty  Sector =  43 [ 8ddd 7b4b b614 9a8d ef26 c3bf 84f5 84f5 84f5 84f5 84f5 84f5 84f5 84f5 84f5 84f5 9ccd 8326 b3a7 5fcf f8c8 de0 f03d ]
Prty  Sector =  44 [ a062 9027 e00e e850 f0b2 f8ec abef abef abef abef abef abef abef abef abef abef 5b94 7246 3317 b5ea 1ebd e80e 69d9 ]
Prty  Sector =  45 [ 42db 3e49 7ad5 c7f9 1086 adaa c4c c4c c4c c4c c4c c4c c4c c4c c4c c4c 7d51 1571 c576 c389 37e7 96aa b300 ]
Prty  Sector =  46 [ 458e cc83 5b34 3459 85ee ea83 1720 1720 1720 1720 1720 1720 1720 1720 1720 1720 4881 9283 44a7 3a34 5718 2f2f 55ab ]
Prty  Sector =  47 [ b75b 9d30 c9c0 11b0 692b b15b a2d4 a2d4 a2d4 a2d4 a2d4 a2d4 a2d4 a2d4 a2d4 a2d4 f0ce ad90 d11 4f05 bf33 d772 5d60 ]
Prty  Sector =  48 [ cd2a 44e6 2420 6596 a74c e6fa 3eda 3eda 3eda 3eda 3eda 3eda 3eda 3eda 3eda 3eda b2af 3f44 b7ab 684 e3e8 ad3f fbdf ]
Prty  Sector =  49 [ 9071 702f 7500 99a1 bc49 50e8 3315 3315 3315 3315 3315 3315 3315 3315 3315 3315 d98f af17 eb8e 46dd 2b58 f1ac e161 ]
**  Finish Track Data Generation 
*****  << Decoding Test >> ******
o Mark Erase Data Data Sectors.  
o Mark Erase Parity sectors.     
dskipm[] = [ 1 0 1 1 0 0 1 0 0 1 0 1 0 1 1 1 1 1 1 0 0 0 1 1 1 1 1 1 1 1 ]
pskipm[] = [ 0 0 0 0 0 0 0 0 0 0 0 0 0 0 0 0 0 0 0 0 ]
g_roots  : 20
g_parity : 20
eras_loc[ ] = [ 0 2 3 6 9 11 13 14 15 16 17 18 22 23 24 25 26 27 28 29 ]
prty_loc[ ] = [ 0 1 2 3 4 5 6 7 8 9 10 11 12 13 14 15 16 17 18 19 ]
+++++++++++++++++ Start Decoding +++++++++++++++++++++
 1) Syndrome Generation:                                
   o Read all data except erase sectors.                
   o Syndrome= Good Data Sector *Dmatrix + Parity Sector
++++++++++++++++++++++++++++++++++++++++++++++++++++++
 ==== Syndrome Sectors =====
Syndrome =  0 [ d9a9 b89e 484a bd44 b25d 4753 b52 b52 b52 b52 b52 b52 b52 b52 b52 b52 9560 ca71 728 756a 2a82 b1bb d75d ]
Syndrome =  1 [ 5b57 36cd 247b 4d2 6529 4580 d2e d2e d2e d2e d2e d2e d2e d2e d2e d2e 5c78 6ef7 4296 12b5 2741 3339 1b4e ]
Syndrome =  2 [ 4ae7 c9a4 c334 11f7 76b9 a47a e422 e422 e422 e422 e422 e422 e422 e422 e422 e422 38ee 8c8f 32b6 2b29 28e7 6ac3 6c99 ]
Syndrome =  3 [ 3b60 e6d9 3017 ef91 9f10 4096 6c20 6c20 6c20 6c20 6c20 6c20 6c20 6c20 6c20 6c20 7a25 3901 9c77 e60e bede a782 fdb8 ]
Syndrome =  4 [ a62e 621a 19e2 3e4f 56b8 7115 ea69 ea69 ea69 ea69 ea69 ea69 ea69 ea69 ea69 ea69 4963 1bf5 118a cab2 a40 9381 d45b ]
Syndrome =  5 [ 8bad 8962 db7 7805 e6d3 9361 e27 e27 e27 e27 e27 e27 e27 e27 e27 e27 806a f4d3 5292 bcaf a9b8 4fbf 7e4c ]
Syndrome =  6 [ 2901 18ff 3daa 2b2d 10a4 623 6978 6978 6978 6978 6978 6978 6978 6978 6978 6978 4efc 760b d725 9e70 8140 70b1 b1ad ]
Syndrome =  7 [ 95a0 7360 8883 9998 aab5 bbae bedd bedd bedd bedd bedd bedd bedd bedd bedd bedd 3601 a9c f06d d427 1de9 7661 959f ]
Syndrome =  8 [ 3964 e725 d6d9 7235 8f0a 2be6 a79 a79 a79 a79 a79 a79 a79 a79 a79 a79 ce10 a6c5 861d 4eed 1268 7e4f 1243 ]
Syndrome =  9 [ 5b1f 36f5 5c34 ac9a ad63 5dcd 392 392 392 392 392 392 392 392 392 392 2b54 cd57 92a0 2888 c97f 32a fb94 ]
Syndrome =  10 [ a290 9189 c4da d137 ef00 faed bdff bdff bdff bdff bdff bdff bdff bdff bdff bdff 45bc 5790 54b9 2fbd 94bb ea7e 24f4 ]
Syndrome =  11 [ 4eb f3a0 147c 9b8e 1b93 9461 b0a4 b0a4 b0a4 b0a4 b0a4 b0a4 b0a4 b0a4 b0a4 b0a4 ffbd fcf1 77c7 1e1c 8137 bb68 a783 ]
Syndrome =  12 [ 4be5 c95a dc4d 333b 12aa fddc bd3 bd3 bd3 bd3 bd3 bd3 bd3 bd3 bd3 bd3 7e3d 129 2fe8 821 b00 691 d7f3 ]
Syndrome =  13 [ 58e0 37a0 4ad9 87c7 c0ee df0 b8ca b8ca b8ca b8ca b8ca b8ca b8ca b8ca b8ca b8ca 2812 4db8 84e5 a6f f19 1ab8 91c1 ]
Syndrome =  14 [ 4986 3882 fecd 7e43 efda 6f54 de27 de27 de27 de27 de27 de27 de27 de27 de27 de27 8e9d b014 6cd7 36a f21e 5638 8416 ]
Syndrome =  15 [ 8836 7812 37f6 3dbf 2364 292d 59c3 59c3 59c3 59c3 59c3 59c3 59c3 59c3 59c3 59c3 eb96 303a 32c9 862e 5f2e 5cff 9cbe ]
Syndrome =  16 [ 6a03 2601 ccf2 6c37 9d73 3db6 6aa5 6aa5 6aa5 6aa5 6aa5 6aa5 6aa5 6aa5 6aa5 6aa5 9bfc 28dc 6b33 32 f9cb f201 9fe9 ]
Syndrome =  17 [ 6397 d174 c8fe 510e eb15 72e5 33f7 33f7 33f7 33f7 33f7 33f7 33f7 33f7 33f7 33f7 7ab8 e21f 4a8f dad9 362d 4ee3 c2dc ]
Syndrome =  18 [ 2790 1d70 3913 8239 5f4c e466 93af 93af 93af 93af 93af 93af 93af 93af 93af 93af ecca 34cb b2e3 b212 386e 95e1 4f9f ]
Syndrome =  19 [ b0d3 6fb1 f88f 69d7 ca34 5b6c 6e31 6e31 6e31 6e31 6e31 6e31 6e31 6e31 6e31 6e31 d6cf dd27 46a3 b7cf 660b ddac 9e41 ]
+++++++++++++++++ Dmatrix          +++++++++++++++++++++
 2) Find Dmatrix D{i,j] i=good parity, j=erased sectors 
 3) Invert Dmatrix                                      
++++++++++++++++++++++++++++++++++++++++++++++++++++++++
 ==== Cauchy Matrix D[Parity,Data or Erasure]       ======
D[i] =  0 [ 4dc3 a30 fd4e 1ad9 dcec 109c 483a 61c8 4178 d88b a787 6a7e 1146 5aeb 945b e515 e3d2 ec13 54dc 851c ]
D[i] =  1 [ af6d 971 f5c0 e3b3 7547 8fab dbca a39b d1e2 cfbd b2b7 c7fd 10a0 f7df 15b7 251f 4ba8 bd27 b253 ea65 ]
D[i] =  2 [ 7679 1394 3a19 8fbc ab36 3da6 5e8f c24e 96e5 e539 8dd4 6a2f 85a0 c8cf 60dd 2b8b 7a08 7c75 6dcd f174 ]
D[i] =  3 [ 3a28 9100 3632 611f 54e3 a9ea 9767 498c 6c 107c 34b7 1cd0 8b62 60bb 9281 7295 6d8a 3fa0 5ed5 3f24 ]
D[i] =  4 [ e04d 29d3 594 770d c7c bf33 c9da 2b1e 4414 9426 fa3d 5ded d527 731f e42e 20a7 d008 e22e 9f6d 7539 ]
D[i] =  5 [ e0a3 8a87 7696 b0d9 ab25 e1c5 816d 56ae 55e1 8ba0 2bd6 754f 1a0d b551 76dc 6a0 bb0f d37d 68c4 1bb4 ]
D[i] =  6 [ 70f8 27a9 dc1f 2da5 ee0 a515 d409 53a5 2888 1cb4 143c 19e3 4629 e6b5 2583 7495 8cc1 c1c8 a059 b90c ]
D[i] =  7 [ c488 4121 2d77 ba 142c f915 7be0 a976 4513 8484 aaf2 fb4 fadf e564 ea18 7d86 2553 c93f 4165 c72d ]
D[i] =  8 [ db63 57e 82ce 8729 5b8b 4290 9e21 4856 df6f f2ff 9bcd 18ee 7a4e fcd8 bd52 9427 42db 26e2 a860 7d73 ]
D[i] =  9 [ 3313 be2b 5cb 93ac bbf a4c2 507b c5d8 29be a075 8bdb fe8d a992 692f 16b5 5f77 ddbe 5574 7aa0 56a7 ]
D[i] =  10 [ 561d 1ff4 b97c d419 b8ab 5f8c aaec cdd7 f739 de6f 2265 4c8d 8068 bb7 16dd 31c6 f829 8aa0 8c4d a4c3 ]
D[i] =  11 [ e122 2b79 6f12 a639 5bc 44a5 9fb2 88b4 e5b5 de0b ef75 e8b1 7221 447 4915 8538 da9e 6f92 bf99 5639 ]
D[i] =  12 [ c3bd e246 dfde d28f e97e 9e0e 68a1 7e6f 3efc 8794 86af 9331 1444 e1b7 5a79 3818 ab59 2e00 b869 a436 ]
D[i] =  13 [ 2d46 f27f ded0 f71d 33cf 11ee 2694 1d8f e153 494f f4e9 9c4f 9591 3c93 5119 792b e921 471f 91ec 5c88 ]
D[i] =  14 [ 29d 1e85 52ac 17b5 2aa8 c5df 4544 9261 73a1 23b 3c4f 6499 1ed1 3e0 c213 d40a e0b3 9827 1cc8 a7e5 ]
D[i] =  15 [ ffcd 7499 76e a4e7 5655 24fd b0ba 64a2 74ea 79c9 2792 9a25 8735 9d28 ba7b 828d 9b9c a63 58f7 df53 ]
D[i] =  16 [ a850 4a5e f79b daa 620c 875f ca27 c62a ffb0 e2c3 3587 34a3 19b4 aa97 e526 5c9d 1e54 833b 2247 f843 ]
D[i] =  17 [ d927 9adb 130c 11a7 eee1 7583 738a e511 fc2a a6be 9244 42e1 8816 444b 1138 c1a5 b28a 9717 113 6721 ]
D[i] =  18 [ b529 247 5419 dc20 18bf c82c 8136 4b97 7ba5 8c17 f7e5 f1a9 edc a0a9 5838 9225 6b17 a545 b13a 74b1 ]
D[i] =  19 [ c330 c268 876d 1b51 9e79 92ff a915 e03e 94ae cb92 d93c ac3b e943 e721 9e8a 87e6 a1de f719 1703 3560 ]
  Invert Dmatrix Starts here.                           
 ==== Parity Sector Polynomial F(x)       ======
Erspt    = [ 1 2 4 8 10 20 40 80 100 200 400 800 1000 2000 4000 8000 100b 2016 402c 8058 ]
F(x)     = [ 15c4 fd0d 51dd 85c7 9bdd c738 83e3 2c0e 2733 751e 7bdf 73bb dbed 38d6 9c6d 7e25 e829 48f1 3bae f96 1 ]
dF(x)    = [ fd0d 85c7 c738 2c0e 751e 73bb 38d6 7e25 48f1 f96 ]
 ==== Erased Data Sector Polynomial G(x)  ======
Erspt    = [ 85d8 34c5 3cce 29be f570 20b6 795f 9d 8f60 3d79 ffca 52a9 1e4b 2bf8 71a 8972 d718 9d5e cd35 4151 ]
G(x)     = [ 544c 5e 862b 1b64 edc1 61c1 31fa d4ff 84fc f3 b12f 66de 6c45 31a2 a392 26d 8a14 6f37 8953 6aea 1 ]
dG(x)    = [ 5e 1b64 61c1 d4ff f3 66de 31a2 26d 6f37 6aea ]
 ==== Evaluate F(x)/dG(x) at bi[i],i=0..3 ======
Left-MW  = [ 9d24 786b 75cb e3f9 eec1 d8fa a442 99d 7b8f ee0d 4092 2b83 f96f a898 8652 e73f deb9 4c9d 3ee8 ef20 ]
 ==== Evaluate G(x)/dF(x) at a[i],i=0..3  ======
Right-MW = [ 18a9 edf7 5cb0 c007 b513 d140 def4 764a 2f77 934a c818 a6f9 3c 9f20 fe05 3a8e eca4 6fa2 9b88 51bd ]
 ==== Inverse of Cauchy Matrix            ======
D[i] =  0 [ f06a c66f d283 d1fe 763a 4588 b942 88b2 c116 8b27 54be 7a74 853a cab0 17e2 a3a2 bdb1 d376 abee 758b ]
D[i] =  1 [ b5 4cd4 ceff 5dad e667 207f 2644 dc56 402c 9ba9 6742 2129 a3fe 608f b4ea 608f afe3 e6a2 a4b6 69c3 ]
D[i] =  2 [ 36c5 f5bb bf72 6d1d eff9 e5f7 43bc d3d2 56a7 c52b b9bb 8a0f 242f 617d 5292 897 f7e2 176f 997d 115e ]
D[i] =  3 [ cc27 f57f 6b99 e4d8 a213 bd43 1b9a 83a9 b988 94f1 aabe dc89 3a33 2485 989e 1539 3615 7949 8eb3 f8cd ]
D[i] =  4 [ 1771 ec1a a348 3e6c 44d0 f808 cdb5 754c 3453 89f0 562c 1655 83bf e257 716a b943 944b f151 48ee ae92 ]
D[i] =  5 [ acdf fa9 ef89 e399 38f9 d35b db7e afd3 13d3 cc72 e58 44c6 4bdc 18a3 e05 c1b e0c7 30e4 74a8 81fc ]
D[i] =  6 [ aa4d 496f e0e3 97a4 687c 3aed 82c5 608a 82a0 25d2 ac95 7b5a 9072 42bd 8a02 3f87 c461 9436 48a6 f549 ]
D[i] =  7 [ 39b8 c31b d42a a25a 17e5 f22c 5a3f 9c0d 3590 4f14 8530 e3ca f48b 862c aadf 9f42 3c0 b9d6 84a0 bc90 ]
D[i] =  8 [ 2257 5183 4e4a fce0 e1fa 8f0 b9fd f43f 5c46 28ee d4f6 990d 24fa 8476 6ffb de35 a84a 2cf2 24f3 c29b ]
D[i] =  9 [ f909 15e4 dff4 fffe feac b058 5acb 3eed d67 e5b6 d7a2 35ea 8655 120d 9630 e172 ee02 6640 ec3e f880 ]
D[i] =  10 [ 2771 eec9 fa76 c397 4594 97e1 3412 895a 2518 1769 1c74 162a 80b3 c162 e0ff 8cca 74b6 fa1b 6b92 a788 ]
D[i] =  11 [ 944 7509 77cf 7fe8 9932 6aa8 5457 9492 c08b 19ab 2cbd 50c2 c93b d1ad 524f b9e7 22d6 9ff9 b007 ba85 ]
D[i] =  12 [ 3eeb cc44 faf9 fa13 c2bc bb59 655a 8c47 6f2f e05e 91c3 b982 a509 1722 d2d7 f8c7 8e59 9762 a0ef e45e ]
D[i] =  13 [ d0a8 31c4 c4eb 76a6 f24e 4c6f d6e8 fa4e 359a f405 f13b a394 ee15 705a dfd8 c39a b109 81d 88c7 7e68 ]
D[i] =  14 [ 4099 14cf be1a 3c77 85bc 30f7 855d 551b d91d e42b 5bb9 1fab f5bb 5f05 bd45 39de e6c5 6db7 af69 3e29 ]
D[i] =  15 [ b159 4e7f 9ce8 2d71 9908 4223 c35 78c9 d1c 3bdf 8a97 350e 8443 df8 f94a 5cca 704b e1c3 f3a4 1cab ]
D[i] =  16 [ f34f f31a 939d 5ca5 d285 5266 61bc 681f d931 3537 2851 d5c0 1860 f41d 1795 390a 8014 72cc 45ee ceca ]
D[i] =  17 [ 7260 c0d7 1d3d 4c66 101d 59fe 1630 fcf0 5380 cb07 91fa 9caa a247 bcc2 d56f f580 769f 6e55 62bc fea6 ]
D[i] =  18 [ b9ba e7a3 1621 3e4c 8d93 b002 ee4 9a2f fa74 6970 4c78 b4 83d 2978 ef08 76d2 7f06 56bc 2be3 21a8 ]
D[i] =  19 [ 6d3f 372a 5d32 239 907b 7db2 6d92 a91b cfe9 1f68 6622 7f39 ef4 abac 9f6d c25a 8e4a 8d44 bd32 f22a ]
 ==== Syndrome Sectors =====
Syndrome =  0 [ d9a9 b89e 484a bd44 b25d 4753 b52 b52 b52 b52 b52 b52 b52 b52 b52 b52 9560 ca71 728 756a 2a82 b1bb d75d ]
Syndrome =  1 [ 5b57 36cd 247b 4d2 6529 4580 d2e d2e d2e d2e d2e d2e d2e d2e d2e d2e 5c78 6ef7 4296 12b5 2741 3339 1b4e ]
Syndrome =  2 [ 4ae7 c9a4 c334 11f7 76b9 a47a e422 e422 e422 e422 e422 e422 e422 e422 e422 e422 38ee 8c8f 32b6 2b29 28e7 6ac3 6c99 ]
Syndrome =  3 [ 3b60 e6d9 3017 ef91 9f10 4096 6c20 6c20 6c20 6c20 6c20 6c20 6c20 6c20 6c20 6c20 7a25 3901 9c77 e60e bede a782 fdb8 ]
Syndrome =  4 [ a62e 621a 19e2 3e4f 56b8 7115 ea69 ea69 ea69 ea69 ea69 ea69 ea69 ea69 ea69 ea69 4963 1bf5 118a cab2 a40 9381 d45b ]
Syndrome =  5 [ 8bad 8962 db7 7805 e6d3 9361 e27 e27 e27 e27 e27 e27 e27 e27 e27 e27 806a f4d3 5292 bcaf a9b8 4fbf 7e4c ]
Syndrome =  6 [ 2901 18ff 3daa 2b2d 10a4 623 6978 6978 6978 6978 6978 6978 6978 6978 6978 6978 4efc 760b d725 9e70 8140 70b1 b1ad ]
Syndrome =  7 [ 95a0 7360 8883 9998 aab5 bbae bedd bedd bedd bedd bedd bedd bedd bedd bedd bedd 3601 a9c f06d d427 1de9 7661 959f ]
Syndrome =  8 [ 3964 e725 d6d9 7235 8f0a 2be6 a79 a79 a79 a79 a79 a79 a79 a79 a79 a79 ce10 a6c5 861d 4eed 1268 7e4f 1243 ]
Syndrome =  9 [ 5b1f 36f5 5c34 ac9a ad63 5dcd 392 392 392 392 392 392 392 392 392 392 2b54 cd57 92a0 2888 c97f 32a fb94 ]
Syndrome =  10 [ a290 9189 c4da d137 ef00 faed bdff bdff bdff bdff bdff bdff bdff bdff bdff bdff 45bc 5790 54b9 2fbd 94bb ea7e 24f4 ]
Syndrome =  11 [ 4eb f3a0 147c 9b8e 1b93 9461 b0a4 b0a4 b0a4 b0a4 b0a4 b0a4 b0a4 b0a4 b0a4 b0a4 ffbd fcf1 77c7 1e1c 8137 bb68 a783 ]
Syndrome =  12 [ 4be5 c95a dc4d 333b 12aa fddc bd3 bd3 bd3 bd3 bd3 bd3 bd3 bd3 bd3 bd3 7e3d 129 2fe8 821 b00 691 d7f3 ]
Syndrome =  13 [ 58e0 37a0 4ad9 87c7 c0ee df0 b8ca b8ca b8ca b8ca b8ca b8ca b8ca b8ca b8ca b8ca 2812 4db8 84e5 a6f f19 1ab8 91c1 ]
Syndrome =  14 [ 4986 3882 fecd 7e43 efda 6f54 de27 de27 de27 de27 de27 de27 de27 de27 de27 de27 8e9d b014 6cd7 36a f21e 5638 8416 ]
Syndrome =  15 [ 8836 7812 37f6 3dbf 2364 292d 59c3 59c3 59c3 59c3 59c3 59c3 59c3 59c3 59c3 59c3 eb96 303a 32c9 862e 5f2e 5cff 9cbe ]
Syndrome =  16 [ 6a03 2601 ccf2 6c37 9d73 3db6 6aa5 6aa5 6aa5 6aa5 6aa5 6aa5 6aa5 6aa5 6aa5 6aa5 9bfc 28dc 6b33 32 f9cb f201 9fe9 ]
Syndrome =  17 [ 6397 d174 c8fe 510e eb15 72e5 33f7 33f7 33f7 33f7 33f7 33f7 33f7 33f7 33f7 33f7 7ab8 e21f 4a8f dad9 362d 4ee3 c2dc ]
Syndrome =  18 [ 2790 1d70 3913 8239 5f4c e466 93af 93af 93af 93af 93af 93af 93af 93af 93af 93af ecca 34cb b2e3 b212 386e 95e1 4f9f ]
Syndrome =  19 [ b0d3 6fb1 f88f 69d7 ca34 5b6c 6e31 6e31 6e31 6e31 6e31 6e31 6e31 6e31 6e31 6e31 d6cf dd27 46a3 b7cf 660b ddac 9e41 ]
 ==== erased Sectors.  ======
Erased Sector =  0 [ 99 77 0 1 2 3 2 2 2 2 2 2 2 2 2 2 2e2 934d 78fc e46 7e27 8be0 123c ]
Erased Sector =  1 [ 99 77 8 9 a b 4 4 4 4 4 4 4 4 4 4 8aa6 b7a9 38ca c37a a23f f020 944e ]
Erased Sector =  2 [ 99 77 c d e f 5 5 5 5 5 5 5 5 5 5 1650 c256 36ef 455e fc1d a91e f25a ]
Erased Sector =  3 [ 99 77 18 19 1a 1b 8 8 8 8 8 8 8 8 8 8 8a25 fe61 b8a6 4909 a04 7a0 88a1 ]
Erased Sector =  4 [ 99 77 24 25 26 27 b b b b b b b b b b 3988 7957 7f1 f96e f103 3b38 7495 ]
Erased Sector =  5 [ 99 77 2c 2d 2e 2f d d d d d d d d d d b1cc 5db3 47c7 3452 2d1b 40f8 f2e7 ]
Erased Sector =  6 [ 99 77 34 35 36 37 f f f f f f f f f f 6a46 bea0 3f65 c1e8 9980 4fcb fcce ]
Erased Sector =  7 [ 99 77 38 39 3a 3b 10 10 10 10 10 10 10 10 10 10 8b23 6df1 a875 4de4 4a79 f8ab b17f ]
Erased Sector =  8 [ 99 77 3c 3d 3e 3f 11 11 11 11 11 11 11 11 11 11 17d5 180e a650 cbc0 145b a195 d76b ]
Erased Sector =  9 [ 99 77 40 41 42 43 12 12 12 12 12 12 12 12 12 12 5dd1 bc8c 9aac ec5e cc20 4827 1346 ]
Erased Sector =  10 [ 99 77 44 45 46 47 13 13 13 13 13 13 13 13 13 13 c127 c973 9489 6a7a 9202 1119 7552 ]
Erased Sector =  11 [ 99 77 48 49 4a 4b 14 14 14 14 14 14 14 14 14 14 d595 9868 da9a 2162 1038 33e7 9534 ]
Erased Sector =  12 [ 99 77 58 59 5a 5b 18 18 18 18 18 18 18 18 18 18 d516 d1a0 5af6 ab11 b803 c467 89db ]
Erased Sector =  13 [ 99 77 5c 5d 5e 5f 19 19 19 19 19 19 19 19 19 19 49e0 a45f 54d3 2d35 e621 9d59 efcf ]
Erased Sector =  14 [ 99 77 60 61 62 63 1a 1a 1a 1a 1a 1a 1a 1a 1a 1a fa4d 2369 eb84 9d52 1d26 a1c1 13fb ]
Erased Sector =  15 [ 99 77 64 65 66 67 1b 1b 1b 1b 1b 1b 1b 1b 1b 1b 66bb 5696 e5a1 1b76 4304 f8ff 75ef ]
Erased Sector =  16 [ 99 77 68 69 6a 6b 1c 1c 1c 1c 1c 1c 1c 1c 1c 1c 7209 78d abb2 506e c13e da01 9589 ]
Erased Sector =  17 [ 99 77 6c 6d 6e 6f 1d 1d 1d 1d 1d 1d 1d 1d 1d 1d eeff 7272 a597 d64a 9f1c 833f f39d ]
Erased Sector =  18 [ 99 77 70 71 72 73 1e 1e 1e 1e 1e 1e 1e 1e 1e 1e a983 e49e d310 a5d4 75a5 d532 9ba0 ]
Erased Sector =  19 [ 99 77 74 75 76 77 1f 1f 1f 1f 1f 1f 1f 1f 1f 1f 3575 9161 dd35 23f0 2b87 8c0c fdb4 ]
