***** <<     Track Data      >> *****
 Track Data = Data Sector || Parity Sector
    o Generate Data Sectors.       
    o Generate Parity sectors.     
      Num of Data Sector : 30... [0,1,..,29] data sector 
      Num of Prty Sector : 20... [0,1,..,19] parity sector 
      Sector Size        : 16
      No of Checks       : 7
**  Start Track Data Generation  
 ==========  Data Sector ===========
Data  Sector =  0 [ 99 77 0 1 2 3 2 2 2 2 2 2 2 2 2 2 2e2 934d 78fc e46 7e27 8be0 123c ]
Data  Sector =  1 [ 99 77 4 5 6 7 3 3 3 3 3 3 3 3 3 3 9e14 e6b2 76d9 8862 2005 d2de 7428 ]
Data  Sector =  2 [ 99 77 8 9 a b 4 4 4 4 4 4 4 4 4 4 8aa6 b7a9 38ca c37a a23f f020 944e ]
Data  Sector =  3 [ 99 77 c d e f 5 5 5 5 5 5 5 5 5 5 1650 c256 36ef 455e fc1d a91e f25a ]
Data  Sector =  4 [ 99 77 10 11 12 13 6 6 6 6 6 6 6 6 6 6 512c 54ba 4068 36c0 16a4 ff13 9a67 ]
Data  Sector =  5 [ 99 77 14 15 16 17 7 7 7 7 7 7 7 7 7 7 cdda 2145 4e4d b0e4 4886 a62d fc73 ]
Data  Sector =  6 [ 99 77 18 19 1a 1b 8 8 8 8 8 8 8 8 8 8 8a25 fe61 b8a6 4909 a04 7a0 88a1 ]
Data  Sector =  7 [ 99 77 1c 1d 1e 1f 9 9 9 9 9 9 9 9 9 9 16d3 8b9e b683 cf2d 5426 5e9e eeb5 ]
Data  Sector =  8 [ 99 77 20 21 22 23 a a a a a a a a a a a57e ca8 9d4 7f4a af21 6206 1281 ]
Data  Sector =  9 [ 99 77 24 25 26 27 b b b b b b b b b b 3988 7957 7f1 f96e f103 3b38 7495 ]
Data  Sector =  10 [ 99 77 28 29 2a 2b c c c c c c c c c c 2d3a 284c 49e2 b276 7339 19c6 94f3 ]
Data  Sector =  11 [ 99 77 2c 2d 2e 2f d d d d d d d d d d b1cc 5db3 47c7 3452 2d1b 40f8 f2e7 ]
Data  Sector =  12 [ 99 77 30 31 32 33 e e e e e e e e e e f6b0 cb5f 3140 47cc c7a2 16f5 9ada ]
Data  Sector =  13 [ 99 77 34 35 36 37 f f f f f f f f f f 6a46 bea0 3f65 c1e8 9980 4fcb fcce ]
Data  Sector =  14 [ 99 77 38 39 3a 3b 10 10 10 10 10 10 10 10 10 10 8b23 6df1 a875 4de4 4a79 f8ab b17f ]
Data  Sector =  15 [ 99 77 3c 3d 3e 3f 11 11 11 11 11 11 11 11 11 11 17d5 180e a650 cbc0 145b a195 d76b ]
Data  Sector =  16 [ 99 77 40 41 42 43 12 12 12 12 12 12 12 12 12 12 5dd1 bc8c 9aac ec5e cc20 4827 1346 ]
Data  Sector =  17 [ 99 77 44 45 46 47 13 13 13 13 13 13 13 13 13 13 c127 c973 9489 6a7a 9202 1119 7552 ]
Data  Sector =  18 [ 99 77 48 49 4a 4b 14 14 14 14 14 14 14 14 14 14 d595 9868 da9a 2162 1038 33e7 9534 ]
Data  Sector =  19 [ 99 77 4c 4d 4e 4f 15 15 15 15 15 15 15 15 15 15 4963 ed97 d4bf a746 4e1a 6ad9 f320 ]
Data  Sector =  20 [ 99 77 50 51 52 53 16 16 16 16 16 16 16 16 16 16 e1f 7b7b a238 d4d8 a4a3 3cd4 9b1d ]
Data  Sector =  21 [ 99 77 54 55 56 57 17 17 17 17 17 17 17 17 17 17 92e9 e84 ac1d 52fc fa81 65ea fd09 ]
Data  Sector =  22 [ 99 77 58 59 5a 5b 18 18 18 18 18 18 18 18 18 18 d516 d1a0 5af6 ab11 b803 c467 89db ]
Data  Sector =  23 [ 99 77 5c 5d 5e 5f 19 19 19 19 19 19 19 19 19 19 49e0 a45f 54d3 2d35 e621 9d59 efcf ]
Data  Sector =  24 [ 99 77 60 61 62 63 1a 1a 1a 1a 1a 1a 1a 1a 1a 1a fa4d 2369 eb84 9d52 1d26 a1c1 13fb ]
Data  Sector =  25 [ 99 77 64 65 66 67 1b 1b 1b 1b 1b 1b 1b 1b 1b 1b 66bb 5696 e5a1 1b76 4304 f8ff 75ef ]
Data  Sector =  26 [ 99 77 68 69 6a 6b 1c 1c 1c 1c 1c 1c 1c 1c 1c 1c 7209 78d abb2 506e c13e da01 9589 ]
Data  Sector =  27 [ 99 77 6c 6d 6e 6f 1d 1d 1d 1d 1d 1d 1d 1d 1d 1d eeff 7272 a597 d64a 9f1c 833f f39d ]
Data  Sector =  28 [ 99 77 70 71 72 73 1e 1e 1e 1e 1e 1e 1e 1e 1e 1e a983 e49e d310 a5d4 75a5 d532 9ba0 ]
Data  Sector =  29 [ 99 77 74 75 76 77 1f 1f 1f 1f 1f 1f 1f 1f 1f 1f 3575 9161 dd35 23f0 2b87 8c0c fdb4 ]
 ==========  Parity Output ===========
Prty  Sector =  30 [ 7ab7 d994 4000 82a8 d55b 17f3 17ef 17ef 17ef 17ef 17ef 17ef 17ef 17ef 17ef 17ef d49a cde5 8f72 3fb9 94ac 8841 167a ]
Prty  Sector =  31 [ a7f7 62ad c8e3 e420 9165 bda6 dd25 dd25 dd25 dd25 dd25 dd25 dd25 dd25 dd25 dd25 356b 9782 c692 884 35fe 28f6 b4ad ]
Prty  Sector =  32 [ dc97 4b8d f55a cfa7 80a0 ba5d 861 861 861 861 861 861 861 861 861 861 9d45 ee96 6a8c fb53 a2a5 86e9 515a ]
Prty  Sector =  33 [ 2199 1f77 29b8 e447 a24d 6fb2 cfdb cfdb cfdb cfdb cfdb cfdb cfdb cfdb cfdb cfdb 8ce3 b77c 17e9 2ee4 a81c 9347 727 ]
Prty  Sector =  34 [ bbf 695 88f6 e3c 9569 13a3 361b 361b 361b 361b 361b 361b 361b 361b 361b 361b cc90 1a47 f3b9 936f 188f f388 502c ]
Prty  Sector =  35 [ db6 492 6a0e 9a11 9a3b 6a24 e03e e03e e03e e03e e03e e03e e03e e03e e03e e03e ca07 1a39 d732 a66b 876b 4c73 635b ]
Prty  Sector =  36 [ abac 969d 67aa b48a d1e1 2c1 9285 9285 9285 9285 9285 9285 9285 9285 9285 9285 4e34 ed4b 166c e7a0 e1c2 fd57 7317 ]
Prty  Sector =  37 [ 47c2 cd47 ad7c 697c 3577 f177 9814 9814 9814 9814 9814 9814 9814 9814 9814 9814 6bd1 d97e edef 9bb5 fb42 3657 8365 ]
Prty  Sector =  38 [ 5b80 3680 a83b f526 1201 4f1c 297e 297e 297e 297e 297e 297e 297e 297e 297e 297e ba82 bda1 d60f c9c8 2fcb 17dd 4df2 ]
Prty  Sector =  39 [ c1d1 b0b6 228b 116c 4545 76a2 58c6 58c6 58c6 58c6 58c6 58c6 58c6 58c6 58c6 58c6 a2eb f0fc 221a dedc 26cc 3f9 fa83 ]
Prty  Sector =  40 [ 9088 7078 c87e 5fb0 f7e9 6027 31da 31da 31da 31da 31da 31da 31da 31da 31da 31da bb17 6187 5402 8db9 35d4 820c 5403 ]
Prty  Sector =  41 [ 5c4c c43d b37b 3c26 bdca 3297 8f4c 8f4c 8f4c 8f4c 8f4c 8f4c 8f4c 8f4c 8f4c 8f4c 3aaf b8ef c9fa 82b2 7c9a cc83 e160 ]
Prty  Sector =  42 [ 8930 88e9 b122 bffb ac90 a249 feb1 feb1 feb1 feb1 feb1 feb1 feb1 feb1 feb1 feb1 cab0 ad4a 4c82 24fe f7b2 213e d8d3 ]
Prty  Sector =  43 [ 8ddd 7b4b b614 9a8d ef26 c3bf 84f5 84f5 84f5 84f5 84f5 84f5 84f5 84f5 84f5 84f5 9ccd 8326 b3a7 5fcf f8c8 de0 f03d ]
Prty  Sector =  44 [ a062 9027 e00e e850 f0b2 f8ec abef abef abef abef abef abef abef abef abef abef 5b94 7246 3317 b5ea 1ebd e80e 69d9 ]
Prty  Sector =  45 [ 42db 3e49 7ad5 c7f9 1086 adaa c4c c4c c4c c4c c4c c4c c4c c4c c4c c4c 7d51 1571 c576 c389 37e7 96aa b300 ]
Prty  Sector =  46 [ 458e cc83 5b34 3459 85ee ea83 1720 1720 1720 1720 1720 1720 1720 1720 1720 1720 4881 9283 44a7 3a34 5718 2f2f 55ab ]
Prty  Sector =  47 [ b75b 9d30 c9c0 11b0 692b b15b a2d4 a2d4 a2d4 a2d4 a2d4 a2d4 a2d4 a2d4 a2d4 a2d4 f0ce ad90 d11 4f05 bf33 d772 5d60 ]
Prty  Sector =  48 [ cd2a 44e6 2420 6596 a74c e6fa 3eda 3eda 3eda 3eda 3eda 3eda 3eda 3eda 3eda 3eda b2af 3f44 b7ab 684 e3e8 ad3f fbdf ]
Prty  Sector =  49 [ 9071 702f 7500 99a1 bc49 50e8 3315 3315 3315 3315 3315 3315 3315 3315 3315 3315 d98f af17 eb8e 46dd 2b58 f1ac e161 ]
**  Finish Track Data Generation 
*****  << Decoding Test >> ******
o Mark Erase Data Data Sectors.  
o Mark Erase Parity sectors.     
dskipm[] = [ 0 0 1 0 0 0 0 0 0 0 0 0 0 0 0 0 0 0 0 0 0 0 0 1 1 1 1 0 0 0 ]
pskipm[] = [ 0 0 0 0 0 0 0 0 0 0 0 0 0 0 0 0 0 0 0 0 ]
g_roots  : 5
g_parity : 20
eras_loc[ ] = [ 2 23 24 25 26 ]
prty_loc[ ] = [ 0 1 2 3 4 5 6 7 8 9 10 11 12 13 14 15 16 17 18 19 ]
+++++++++++++++++ Start Decoding +++++++++++++++++++++
 1) Syndrome Generation:                                
   o Read all data except erase sectors.                
   o Syndrome= Good Data Sector *Dmatrix + Parity Sector
++++++++++++++++++++++++++++++++++++++++++++++++++++++
 ==== Syndrome Sectors =====
Syndrome =  0 [ 450 f3c9 8620 4467 12a5 d0e2 ae71 ae71 ae71 ae71 ae71 ae71 ae71 ae71 ae71 ae71 8b75 e798 764c 3b93 81fa 33c5 6494 ]
Syndrome =  1 [ 87b0 8d69 b851 3dff a306 26a8 c383 c383 c383 c383 c383 c383 c383 c383 c383 c383 122 6a80 c185 7e6e d393 38b3 35b0 ]
Syndrome =  2 [ aba8 6698 5523 bf26 9122 7b27 1653 1653 1653 1653 1653 1653 1653 1653 1653 1653 2c1b 271f 908c a82a 764b 29fb a122 ]
Syndrome =  3 [ dc5e 4bca f92e 850b 164 7d41 2b13 2b13 2b13 2b13 2b13 2b13 2b13 2b13 2b13 2b13 1a8 df9 59da e17d c812 4634 ad44 ]
Syndrome =  4 [ cf08 b501 de78 9035 42e2 caf 8e7 8e7 8e7 8e7 8e7 8e7 8e7 8e7 8e7 8e7 7bc9 c2ad d79e 3e8e f5e9 f030 2fa4 ]
Syndrome =  5 [ 1a6a f9df eab9 1e1c 13f8 e75d c635 c635 c635 c635 c635 c635 c635 c635 c635 c635 e5c7 9c48 24e7 5275 f0e3 4d14 515f ]
Syndrome =  6 [ a3ca 6146 8fa6 936d b630 aafb f09c f09c f09c f09c f09c f09c f09c f09c f09c f09c 7778 dce f68f ba4f 937c 79e5 1e63 ]
Syndrome =  7 [ 2e06 1a02 3edd 2855 13cd 545 91ff 91ff 91ff 91ff 91ff 91ff 91ff 91ff 91ff 91ff fa33 86a9 2e4c 59f5 356 d9c2 e5b3 ]
Syndrome =  8 [ 2408 ec01 cbf 9eb7 38a4 aaac 2825 2825 2825 2825 2825 2825 2825 2825 2825 2825 b27e e4e3 dca8 80de c8e7 a981 a384 ]
Syndrome =  9 [ 827f 8e2c 5433 174b d2c3 91bb 8473 8473 8473 8473 8473 8473 8473 8473 8473 8473 307b 8cd4 6e6f 3b9e 95e9 6874 1890 ]
Syndrome =  10 [ c9a 476 47c1 8cb0 c128 a59 8713 8713 8713 8713 8713 8713 8713 8713 8713 8713 ad7a 478b c1af e0cc 8309 ec7b ac0c ]
Syndrome =  11 [ 5b6c c6dd b7f1 8e7c c4eb fd66 5644 5644 5644 5644 5644 5644 5644 5644 5644 5644 d950 93b6 2c97 1f9f f42c 4040 5033 ]
Syndrome =  12 [ c762 42de 9cb2 567b 192b d3e2 d58f d58f d58f d58f d58f d58f d58f d58f d58f d58f 193a 397a 8e3a 4d1 378 a415 887a ]
Syndrome =  13 [ 46 f03b c282 cd7d dd7c d283 ccfc ccfc ccfc ccfc ccfc ccfc ccfc ccfc ccfc ccfc baa4 f494 cfe1 b8e3 34db a9aa 543e ]
Syndrome =  14 [ 5d92 348e 599f b250 9e0a 75c5 4db5 4db5 4db5 4db5 4db5 4db5 4db5 4db5 4db5 4db5 fc99 8cb5 cad2 8f79 575a b13d bafc ]
Syndrome =  15 [ cd58 44c8 c00c 8ad7 55ba 1f61 d466 d466 d466 d466 d466 d466 d466 d466 d466 d466 2d81 b16d f60f 7542 d89 4e45 d5fd ]
Syndrome =  16 [ ee27 5a1d a6b8 e19e 28f4 6fd2 6914 6914 6914 6914 6914 6914 6914 6914 6914 6914 b219 c2f7 dd3e 4e17 627f e080 d502 ]
Syndrome =  17 [ 8118 7f08 e638 5abf 8f3d 33ba f2a6 f2a6 f2a6 f2a6 f2a6 f2a6 f2a6 f2a6 f2a6 f2a6 bc4 f66f ae6c 2e4 affa e87 e4e ]
Syndrome =  18 [ c08f b07c 560b 55ef 51c3 5227 14de 14de 14de 14de 14de 14de 14de 14de 14de 14de 5ad 94c2 d402 60ae d858 d3e9 5e81 ]
Syndrome =  19 [ 22e2 1e5e 9771 a8a bc8c 2177 b955 b955 b955 b955 b955 b955 b955 b955 b955 b955 3d4a e667 f4dd fb7e 6689 7f59 f1e2 ]
+++++++++++++++++ Dmatrix          +++++++++++++++++++++
 2) Find Dmatrix D{i,j] i=good parity, j=erased sectors 
 3) Invert Dmatrix                                      
++++++++++++++++++++++++++++++++++++++++++++++++++++++++
 ==== Cauchy Matrix D[Parity,Data or Erasure]       ======
D[i] =  0 [ a30 5aeb 945b e515 e3d2 ]
D[i] =  1 [ 971 f7df 15b7 251f 4ba8 ]
D[i] =  2 [ 1394 c8cf 60dd 2b8b 7a08 ]
D[i] =  3 [ 9100 60bb 9281 7295 6d8a ]
D[i] =  4 [ 29d3 731f e42e 20a7 d008 ]
  Invert Dmatrix Starts here.                           
 ==== Parity Sector Polynomial F(x)       ======
Erspt    = [ 1 2 4 8 10 ]
// equation starts at X^5. So (1*X^5)+(1f*X^4)....
F(x)     = [ 400 7c0 318 c6 1f 1 ]
// equation is (1*X^4)+(c6*x^2)+7c0
dF(x)    = [ 7c0 c6 1 ]
 ==== Erased Data Sector Polynomial G(x)  ======
Erspt    = [ 34c5 2bf8 71a 8972 d718 ]
G(x)     = [ d8ed 59d4 ae5d 4250 464d 1 ]
dG(x)    = [ 59d4 4250 1 ]
 ==== Evaluate F(x)/dG(x) at bi[i],i=0..3 ======
Left-MW  = [ 9108 5e3f f65 ea61 6c61 ]
 ==== Evaluate G(x)/dF(x) at a[i],i=0..3  ======
Right-MW = [ a854 4f1b 7129 11a6 c192 ]
 ==== Inverse of Cauchy Matrix            ======
D[i] =  0 [ 5df6 b5c9 865a 93a3 5592 ]
D[i] =  1 [ d481 aed2 f102 a3e6 67ac ]
D[i] =  2 [ af28 5cd0 9142 5f67 4cf4 ]
D[i] =  3 [ 3c4a 7733 7f35 db10 fefa ]
D[i] =  4 [ 8b1d 6ec7 964a 5e53 ec51 ]
 ==== Syndrome Sectors =====
Syndrome =  0 [ 450 f3c9 8620 4467 12a5 d0e2 ae71 ae71 ae71 ae71 ae71 ae71 ae71 ae71 ae71 ae71 8b75 e798 764c 3b93 81fa 33c5 6494 ]
Syndrome =  1 [ 87b0 8d69 b851 3dff a306 26a8 c383 c383 c383 c383 c383 c383 c383 c383 c383 c383 122 6a80 c185 7e6e d393 38b3 35b0 ]
Syndrome =  2 [ aba8 6698 5523 bf26 9122 7b27 1653 1653 1653 1653 1653 1653 1653 1653 1653 1653 2c1b 271f 908c a82a 764b 29fb a122 ]
Syndrome =  3 [ dc5e 4bca f92e 850b 164 7d41 2b13 2b13 2b13 2b13 2b13 2b13 2b13 2b13 2b13 2b13 1a8 df9 59da e17d c812 4634 ad44 ]
Syndrome =  4 [ cf08 b501 de78 9035 42e2 caf 8e7 8e7 8e7 8e7 8e7 8e7 8e7 8e7 8e7 8e7 7bc9 c2ad d79e 3e8e f5e9 f030 2fa4 ]
 ==== erased Sectors.  ======
Erased Sector =  0 [ 99 77 8 9 a b 4 4 4 4 4 4 4 4 4 4 8aa6 b7a9 38ca c37a a23f f020 944e ]
Erased Sector =  1 [ 99 77 5c 5d 5e 5f 19 19 19 19 19 19 19 19 19 19 49e0 a45f 54d3 2d35 e621 9d59 efcf ]
Erased Sector =  2 [ 99 77 60 61 62 63 1a 1a 1a 1a 1a 1a 1a 1a 1a 1a fa4d 2369 eb84 9d52 1d26 a1c1 13fb ]
Erased Sector =  3 [ 99 77 64 65 66 67 1b 1b 1b 1b 1b 1b 1b 1b 1b 1b 66bb 5696 e5a1 1b76 4304 f8ff 75ef ]
Erased Sector =  4 [ 99 77 68 69 6a 6b 1c 1c 1c 1c 1c 1c 1c 1c 1c 1c 7209 78d abb2 506e c13e da01 9589 ]
